<svg width="64" height="39" viewBox="0 0 64 39" fill="none" xmlns="http://www.w3.org/2000/svg">
<path d="M32.5 7L35.3064 15.6373H44.3882L37.0409 20.9754L39.8473 29.6127L32.5 24.2746L25.1527 29.6127L27.9591 20.9754L20.6118 15.6373H29.6936L32.5 7Z" fill="#5B5B57" fill-opacity="0.65"/>
</svg>
